{
  "ping": {
    "class": "./Ping.js",
    "requires": [],
    "args": {},
    "wait_enabled": "false"
  },
  "version": {
    "class": "./Version.js",
    "requires": [],
    "args": {},
    "wait_enabled": "false"
  },
  "music": {
    "class": "./Music.js",
    "requires": ["MusicManager"],
    "args": {
      "operation": "String"
    },
    "wait_enabled": "true",
    "wait_timeout": 15
  },
  "help": {
    "class": "./Help.js",
    "requires": [],
    "args": {},
    "wait_enabled": "false"
  },
  "te": {
    "class": "./TestEvent.js",
    "requires": [],
    "args": {},
    "wait_enabled": "false"
  }
}